D:\BAL.DPR\Java\ExlabIntermed\LabResearchExchangeServiceIntermed\src\main\java\com\initmed\db\model\EgiszMeasure.java
D:\BAL.DPR\Java\ExlabIntermed\LabResearchExchangeServiceIntermed\src\main\java\com\initmed\facades\DiseasesFacade.java
D:\BAL.DPR\Java\ExlabIntermed\LabResearchExchangeServiceIntermed\src\main\java\com\initmed\facades\EgiszresearchtypesFacade.java
D:\BAL.DPR\Java\ExlabIntermed\LabResearchExchangeServiceIntermed\src\main\java\com\initmed\controller\BundleOutcomeLoader.java
D:\BAL.DPR\Java\ExlabIntermed\LabResearchExchangeServiceIntermed\src\main\java\com\initmed\controller\BundleIncomeLoader.java
D:\BAL.DPR\Java\ExlabIntermed\LabResearchExchangeServiceIntermed\src\main\java\com\initmed\exceptions\WrongDiagnException.java
D:\BAL.DPR\Java\ExlabIntermed\LabResearchExchangeServiceIntermed\src\main\java\com\initmed\db\model\Persons.java
D:\BAL.DPR\Java\ExlabIntermed\LabResearchExchangeServiceIntermed\src\main\java\com\initmed\db\model\EgiszOrderitems.java
D:\BAL.DPR\Java\ExlabIntermed\LabResearchExchangeServiceIntermed\src\main\java\com\initmed\facades\EgiszOrderstatusFacade.java
D:\BAL.DPR\Java\ExlabIntermed\LabResearchExchangeServiceIntermed\src\main\java\com\initmed\db\model\People.java
D:\BAL.DPR\Java\ExlabIntermed\LabResearchExchangeServiceIntermed\src\main\java\com\initmed\facades\VExlabVLabTestResultFacade.java
D:\BAL.DPR\Java\ExlabIntermed\LabResearchExchangeServiceIntermed\src\main\java\com\initmed\controller\Cron.java
D:\BAL.DPR\Java\ExlabIntermed\LabResearchExchangeServiceIntermed\src\main\java\com\initmed\facades\PersonsFacade.java
D:\BAL.DPR\Java\ExlabIntermed\LabResearchExchangeServiceIntermed\src\main\java\com\initmed\exceptions\NotFoundException.java
D:\BAL.DPR\Java\ExlabIntermed\LabResearchExchangeServiceIntermed\src\main\java\com\initmed\facades\EgiszVersionTargets.java
D:\BAL.DPR\Java\ExlabIntermed\LabResearchExchangeServiceIntermed\src\main\java\com\initmed\db\model\EgiszOrders.java
D:\BAL.DPR\Java\ExlabIntermed\LabResearchExchangeServiceIntermed\src\main\java\com\initmed\facades\PeopleFacade.java
D:\BAL.DPR\Java\ExlabIntermed\LabResearchExchangeServiceIntermed\src\main\java\com\initmed\facades\DocAnalysOrderAimFacade.java
D:\BAL.DPR\Java\ExlabIntermed\LabResearchExchangeServiceIntermed\src\main\java\com\initmed\facades\EgiszresearchgroupFacade.java
D:\BAL.DPR\Java\ExlabIntermed\LabResearchExchangeServiceIntermed\src\main\java\com\initmed\exceptions\WrongDateIntervalException.java
D:\BAL.DPR\Java\ExlabIntermed\LabResearchExchangeServiceIntermed\src\main\java\com\initmed\controller\JAXRSConfiguration.java
D:\BAL.DPR\Java\ExlabIntermed\LabResearchExchangeServiceIntermed\src\main\java\com\initmed\facades\IntegrationFRMRFacade.java
D:\BAL.DPR\Java\ExlabIntermed\LabResearchExchangeServiceIntermed\src\main\java\com\initmed\db\model\Parameters.java
D:\BAL.DPR\Java\ExlabIntermed\LabResearchExchangeServiceIntermed\src\main\java\com\initmed\facades\EgiszresearchmaterialsFacade.java
D:\BAL.DPR\Java\ExlabIntermed\LabResearchExchangeServiceIntermed\src\main\java\com\initmed\db\model\EgiszMeasureTypes.java
D:\BAL.DPR\Java\ExlabIntermed\LabResearchExchangeServiceIntermed\src\main\java\com\initmed\controller\util\Util.java
D:\BAL.DPR\Java\ExlabIntermed\LabResearchExchangeServiceIntermed\src\main\java\com\initmed\db\model\EgiszTargets.java
D:\BAL.DPR\Java\ExlabIntermed\LabResearchExchangeServiceIntermed\src\main\java\com\initmed\controller\FHIRparameters.java
D:\BAL.DPR\Java\ExlabIntermed\LabResearchExchangeServiceIntermed\src\main\java\com\initmed\db\model\Personnnel.java
D:\BAL.DPR\Java\ExlabIntermed\LabResearchExchangeServiceIntermed\src\main\java\com\initmed\db\model\TempPersons.java
D:\BAL.DPR\Java\ExlabIntermed\LabResearchExchangeServiceIntermed\src\main\java\com\initmed\facades\EgiszOrderItemsFacade.java
D:\BAL.DPR\Java\ExlabIntermed\LabResearchExchangeServiceIntermed\src\main\java\com\initmed\exceptions\WrongNameException.java
D:\BAL.DPR\Java\ExlabIntermed\LabResearchExchangeServiceIntermed\src\main\java\com\initmed\facades\DictDoctorsFacade.java
D:\BAL.DPR\Java\ExlabIntermed\LabResearchExchangeServiceIntermed\src\main\java\com\initmed\facades\ParametersLoader.java
D:\BAL.DPR\Java\ExlabIntermed\LabResearchExchangeServiceIntermed\src\main\java\com\initmed\db\model\DictDoctors.java
D:\BAL.DPR\Java\ExlabIntermed\LabResearchExchangeServiceIntermed\src\main\java\com\initmed\facades\AbstractFacade.java
D:\BAL.DPR\Java\ExlabIntermed\LabResearchExchangeServiceIntermed\src\main\java\com\initmed\facades\EgiscontainertypesFacade.java
D:\BAL.DPR\Java\ExlabIntermed\LabResearchExchangeServiceIntermed\src\main\java\com\initmed\facades\EventlogFacade.java
D:\BAL.DPR\Java\ExlabIntermed\LabResearchExchangeServiceIntermed\src\main\java\com\initmed\db\model\EgiszMaterials.java
D:\BAL.DPR\Java\ExlabIntermed\LabResearchExchangeServiceIntermed\src\main\java\com\initmed\facades\EgiszTargetsFacade.java
D:\BAL.DPR\Java\ExlabIntermed\LabResearchExchangeServiceIntermed\src\main\java\com\initmed\db\model\IntegrationFRMR.java
D:\BAL.DPR\Java\ExlabIntermed\LabResearchExchangeServiceIntermed\src\main\java\com\initmed\facades\VexlabOutocomeOrdersFacade.java
D:\BAL.DPR\Java\ExlabIntermed\LabResearchExchangeServiceIntermed\src\main\java\com\initmed\db\model\EgiszTermsVersions.java
D:\BAL.DPR\Java\ExlabIntermed\LabResearchExchangeServiceIntermed\src\main\java\com\initmed\db\model\EgiszContainertypes.java
D:\BAL.DPR\Java\ExlabIntermed\LabResearchExchangeServiceIntermed\src\main\java\com\initmed\db\model\EgiszOrderstatus.java
D:\BAL.DPR\Java\ExlabIntermed\LabResearchExchangeServiceIntermed\src\main\java\com\initmed\db\model\EgiszResearchtypes.java
D:\BAL.DPR\Java\ExlabIntermed\LabResearchExchangeServiceIntermed\src\main\java\com\initmed\facades\DocAnalysOrderFacade.java
D:\BAL.DPR\Java\ExlabIntermed\LabResearchExchangeServiceIntermed\src\main\java\com\initmed\db\model\EgiszResearchGroup.java
D:\BAL.DPR\Java\ExlabIntermed\LabResearchExchangeServiceIntermed\src\main\java\com\initmed\controller\FHIRCLient.java
D:\BAL.DPR\Java\ExlabIntermed\LabResearchExchangeServiceIntermed\src\main\java\com\initmed\db\model\VExlabVLabTestResult.java
D:\BAL.DPR\Java\ExlabIntermed\LabResearchExchangeServiceIntermed\src\main\java\com\initmed\controller\RequestInterceptor.java
D:\BAL.DPR\Java\ExlabIntermed\LabResearchExchangeServiceIntermed\src\main\java\com\initmed\facades\EgiszOrdersFacade.java
D:\BAL.DPR\Java\ExlabIntermed\LabResearchExchangeServiceIntermed\src\main\java\com\initmed\db\model\DocAnalysOrder.java
D:\BAL.DPR\Java\ExlabIntermed\LabResearchExchangeServiceIntermed\src\main\java\com\initmed\db\model\Eventlog.java
D:\BAL.DPR\Java\ExlabIntermed\LabResearchExchangeServiceIntermed\src\main\java\com\initmed\controller\BundleBioLoader.java
D:\BAL.DPR\Java\ExlabIntermed\LabResearchExchangeServiceIntermed\src\main\java\com\initmed\controller\AdminRest.java
D:\BAL.DPR\Java\ExlabIntermed\LabResearchExchangeServiceIntermed\src\main\java\com\initmed\db\model\DocAnalysOrderAim.java
D:\BAL.DPR\Java\ExlabIntermed\LabResearchExchangeServiceIntermed\src\main\java\com\initmed\facades\TempPersonsFacade.java
D:\BAL.DPR\Java\ExlabIntermed\LabResearchExchangeServiceIntermed\src\main\java\com\initmed\db\model\VexlabOutocomeOrders.java
